{
    "icon": "temaki-airport",
    "geometry": [
        "area",
        "point"
    ],
    "terms": [
        "aerodrome",
        "aeroway station"
    ],
    "fields": [
        "Name",
        "WheelchairAccess",
        "AudioInformation",
        "VisualSigns",
        "VisualDisplays"
    ],
    "moreFields": [],
    "tags": {
        "StopPlace": "Airport"
    },
    "addTags": {
        "PointOfInterest": "StopPlace",
        "StopPlace": "Airport"
    },
    "name": "Airport"
}
