{
    "name": "State Parliament",
    "icon": "temaki-town_hall",
    "terms": [
        "state parliament"
    ],
    "geometry": [
        "area",
        "point"
    ],
    "tags": {
        "PointOfInterest": "Government",
        "Parliament": "State",
        "Government": "Parliament"
    },
    "fields": [
        "{PointOfInterest/default_POI}"
    ],
    "moreFields": [
        "{PointOfInterest/default_POI}"
    ]
}
