{
    "name": "Payroll Tax Office",
    "icon": "temaki-town_hall",
    "terms": [
        "tax office"
    ],
    "geometry": [
        "area",
        "point"
    ],
    "tags": {
        "PointOfInterest": "Government",
        "Tax": "Payroll",
        "Government": "Tax"
    },
    "fields": [
        "{PointOfInterest/default_POI}"
    ],
    "moreFields": [
        "{PointOfInterest/default_POI}"
    ]
}
