{
    "icon": "temaki-post_box",
    "geometry": [
        "vertex",
        "point"
    ],
    "terms": [
        "drop box",
        "dropbox",
        "letter drop",
        "mail box",
        "mail collection box",
        "mail drop",
        "mail dropoff",
        "mailbox",
        "package drop",
        "pillar box",
        "pillarbox",
        "post box",
        "postal box",
        "postbox"
    ],
    "fields": [],
    "moreFields": [],
    "tags": {
        "Amenity": "PostBox"
    },
    "addTags": {
        "Amenity": "PostBox"
    },
    "name": "Post Box"
}
