{
    "icon": "maki-entrance-alt1",
    "geometry": [
        "vertex",
        "point"
    ],
    "terms": [
        "subway entrance",
        "subway exit",
        "station entrance",
        "station exit"
    ],
    "fields": [
        "Name",
        "PublicCode"
    ],
    "moreFields": [],
    "tags": {
        "Entrance": "StopPlace"
    },
    "addTags": {
        "Entrance": "StopPlace"
    },
    "name": "Stop Place Entrance"
}
