{
    "icon": "maki-library",
    "geometry": [
        "area",
        "point"
    ],
    "terms": [
        "book"
    ],
    "fields": [
        "{PointOfInterest/default_POI}"
    ],
    "moreFields": [
        "{PointOfInterest/default_POI}"
    ],
    "tags": {
        "PointOfInterest": "Library"
    },
    "name": "Library"
}
