{
    "name": "Tertiary School",
    "icon": "maki-college",
    "terms": [
        "Tertiary school"
    ],
    "geometry": [
        "area",
        "point"
    ],
    "tags": {
        "PointOfInterest": "Education",
        "Education": "Tertiary"
    },
    "fields": [
        "{PointOfInterest/default_POI}"
    ],
    "moreFields": [
        "{PointOfInterest/default_POI}"
    ]
}
