{
    "name": "Buddhist Temple",
    "icon": "maki-religious-buddhist",
    "terms": [
        "stupa",
        "vihara",
        "monastery",
        "temple",
        "pagoda",
        "zendo",
        "dojo"
    ],
    "geometry": [
        "area",
        "point"
    ],
    "tags": {
        "PointOfInterest": "Religion",
        "Religion": "Buddhist"
    },
    "fields": [
        "{PointOfInterest/default_POI}"
    ],
    "moreFields": [
        "{PointOfInterest/default_POI}"
    ]
}
