{
    "name": "Sikh Temple",
    "icon": "temaki-sikhism",
    "terms": [
        "gurudwara",
        "temple"
    ],
    "geometry": [
        "area",
        "point"
    ],
    "tags": {
        "PointOfInterest": "Religion",
        "Religion": "Sikh"
    },
    "fields": [
        "{PointOfInterest/default_POI}"
    ],
    "moreFields": [
        "{PointOfInterest/default_POI}"
    ]
}
