{
    "name": "Taoist Temple",
    "icon": "temaki-taoism",
    "terms": [
        "daoist",
        "monastery",
        "temple"
    ],
    "geometry": [
        "area",
        "point"
    ],
    "tags": {
        "PointOfInterest": "Religion",
        "Religion": "Taoist"
    },
    "fields": [
        "{PointOfInterest/default_POI}"
    ],
    "moreFields": [
        "{PointOfInterest/default_POI}"
    ]
}
