{
    "name": "Swimming Pool Facility",
    "icon": "fas-swimmer",
    "terms": [
        "dive",
        "water"
    ],
    "geometry": [
        "area",
        "point"
    ],
    "tags": {
        "PointOfInterest": "Sport",
        "Sport": "SwimmingCenter"
    },
    "fields": [
        "{PointOfInterest/default_POI}"
    ],
    "moreFields": [
        "{PointOfInterest/default_POI}",
        "Tickets"
    ]
}
