{
    "icon": "temaki-pedestrian_crosswalk",
    "fields": [
        "WheelchairAccess"
    ],
    "moreFields": [
        "PedestrianLights",
        "ZebraCrossing",
        "VisualGuidanceBands",
        "AcousticCrossingAids",
        "{SitePathLink}"
    ],
    "geometry": [
        "line"
    ],
    "tags": {
        "SitePathLink": "Crossing",
        "CrossingIsland": "Yes",
        "Crossing": "Road"
    },
    "addTags": {
        "SitePathLink": "Crossing",
        "CrossingIsland": "Yes",
        "Crossing": "Road"
    },
    "terms": [
        "zebra crossing",
        "marked crossing",
        "foot path crossing",
        "pedestrian crossing",
        "crosswalk"
    ],
    "name": "Road Crossing With Island"
}
