{
    "name": "Civil Police",
    "icon": "temaki-police_officer",
    "terms": [
        "Civil police"
    ],
    "geometry": [
        "area",
        "point"
    ],
    "tags": {
        "PointOfInterest": "Government",
        "Police": "Civil",
        "Government": "Police"
    },
    "fields": [
        "{PointOfInterest/default_POI}"
    ],
    "moreFields": [
        "{PointOfInterest/default_POI}"
    ]
}
