{
    "key": "AudioInformation",
    "type": "combo",
    "label": "AudioInformation",
    "strings": {
        "options": {
            "Yes": "Audio Information Working For Hearing Impaired",
            "Bad": "Audio Information",
            "No": "No Audio Information"
        }
    },
    "autoSuggestions": false,
    "customValues": false
}
