{
    "key": "VisualSigns:Description",
    "type": "textarea",
    "label": "What is limited about the visual signs",
    "placeholder": "only available on one side ...",
    "universal": true,
    "terms": [
        "details"
    ]
}
